<?xml version="1.0" encoding="utf-8"?>
<!-- Generator: Adobe Illustrator 16.0.0, SVG Export Plug-In . SVG Version: 6.00 Build 0)  -->
<!DOCTYPE svg PUBLIC "-//W3C//DTD SVG 1.1//EN" "http://www.w3.org/Graphics/SVG/1.1/DTD/svg11.dtd">
<svg version="1.1" id="Layer_1" xmlns="http://www.w3.org/2000/svg" xmlns:xlink="http://www.w3.org/1999/xlink" x="0px" y="0px"
	 width="164px" height="64px" viewBox="0 0 164 64" enable-background="new 0 0 164 64" xml:space="preserve">
<g>
	<g>
		<g>
			<path fill="#333333" d="M59.337,18.519h0.796l5.196,11.301H64.42l-1.417-3.143h-6.582l-1.419,3.143h-0.859L59.337,18.519z
				 M62.652,25.924l-2.933-6.493l-2.949,6.493H62.652z"/>
			<path fill="#333333" d="M70.162,29.997c-0.67,0-1.283-0.105-1.841-0.313c-0.558-0.208-1.042-0.519-1.451-0.93
				c-0.408-0.411-0.725-0.919-0.947-1.523c-0.224-0.603-0.335-1.296-0.335-2.076v-6.557h0.828v6.476
				c0,1.336,0.332,2.365,0.996,3.086c0.664,0.722,1.591,1.082,2.781,1.082c1.136,0,2.04-0.342,2.708-1.025
				c0.67-0.684,1.004-1.705,1.004-3.062v-6.557h0.829v6.46c0,0.802-0.111,1.509-0.335,2.124c-0.223,0.615-0.537,1.13-0.94,1.547
				c-0.403,0.417-0.885,0.732-1.441,0.946C71.46,29.889,70.841,29.997,70.162,29.997z"/>
			<path fill="#333333" d="M79.612,19.353h-3.889v-0.754h8.606v0.754H80.44V29.82h-0.828V19.353z"/>
			<path fill="#333333" d="M90.205,30.012c-0.84,0-1.604-0.158-2.295-0.473c-0.689-0.315-1.279-0.737-1.768-1.267
				c-0.49-0.529-0.867-1.141-1.132-1.836c-0.265-0.694-0.398-1.427-0.398-2.196v-0.031c0-0.77,0.136-1.504,0.406-2.205
				c0.271-0.7,0.651-1.317,1.14-1.851c0.488-0.535,1.08-0.958,1.777-1.274c0.695-0.315,1.463-0.474,2.303-0.474
				c0.85,0,1.617,0.158,2.303,0.474c0.685,0.316,1.271,0.737,1.76,1.266c0.489,0.529,0.866,1.142,1.132,1.836
				c0.265,0.695,0.398,1.427,0.398,2.196c0.011,0.011,0.011,0.021,0,0.032c0,0.769-0.136,1.504-0.406,2.204
				c-0.271,0.7-0.651,1.317-1.14,1.852c-0.488,0.534-1.078,0.959-1.768,1.274C91.826,29.854,91.056,30.012,90.205,30.012z
				 M90.236,29.258c0.691,0,1.326-0.13,1.905-0.393c0.579-0.261,1.078-0.619,1.498-1.074c0.419-0.454,0.746-0.985,0.979-1.594
				c0.234-0.609,0.351-1.262,0.351-1.957v-0.031c0-0.695-0.118-1.349-0.358-1.964c-0.238-0.614-0.568-1.148-0.988-1.604
				c-0.419-0.454-0.922-0.814-1.506-1.082c-0.584-0.267-1.221-0.4-1.912-0.4c-0.69,0-1.325,0.131-1.904,0.393
				s-1.078,0.62-1.498,1.074c-0.419,0.455-0.746,0.985-0.979,1.595c-0.233,0.609-0.351,1.261-0.351,1.956v0.032
				c0,0.695,0.119,1.349,0.358,1.963s0.568,1.149,0.988,1.603c0.419,0.455,0.921,0.815,1.506,1.082
				C88.909,29.125,89.547,29.258,90.236,29.258z"/>
			<path fill="#333333" d="M97.297,18.599h0.781l4.479,6.637l4.478-6.637h0.78V29.82h-0.828v-9.746l-4.422,6.459H102.5l-4.422-6.459
				v9.746h-0.781V18.599z"/>
			<path fill="#333333" d="M114.652,18.519h0.796l5.196,11.301h-0.91l-1.418-3.143h-6.582l-1.418,3.143h-0.859L114.652,18.519z
				 M117.967,25.924l-2.933-6.493l-2.948,6.493H117.967z"/>
			<path fill="#333333" d="M123.37,19.353h-3.888v-0.754h8.605v0.754h-3.889V29.82h-0.829V19.353z"/>
			<path fill="#333333" d="M129.682,18.599h0.828V29.82h-0.828V18.599z"/>
			<path fill="#333333" d="M138.254,30.012c-0.84,0-1.605-0.158-2.295-0.473c-0.691-0.315-1.279-0.737-1.77-1.267
				c-0.488-0.529-0.865-1.141-1.131-1.836c-0.266-0.694-0.398-1.427-0.398-2.196v-0.031c0-0.77,0.136-1.504,0.406-2.205
				c0.271-0.7,0.651-1.317,1.14-1.851c0.489-0.535,1.081-0.958,1.776-1.274c0.697-0.315,1.465-0.474,2.304-0.474
				c0.85,0,1.618,0.158,2.302,0.474c0.686,0.316,1.273,0.737,1.762,1.266c0.488,0.529,0.865,1.142,1.131,1.836
				c0.266,0.695,0.398,1.427,0.398,2.196c0.01,0.011,0.01,0.021,0,0.032c0,0.769-0.136,1.504-0.406,2.204
				c-0.271,0.7-0.652,1.317-1.14,1.852c-0.489,0.534-1.078,0.959-1.769,1.274S139.104,30.012,138.254,30.012z M138.285,29.258
				c0.691,0,1.326-0.13,1.904-0.393c0.58-0.261,1.078-0.619,1.498-1.074c0.42-0.454,0.746-0.985,0.979-1.594
				c0.233-0.609,0.351-1.262,0.351-1.957v-0.031c0-0.695-0.119-1.349-0.357-1.964c-0.239-0.614-0.569-1.148-0.989-1.604
				c-0.419-0.454-0.921-0.814-1.506-1.082c-0.584-0.267-1.222-0.4-1.911-0.4c-0.691,0-1.326,0.131-1.904,0.393
				c-0.58,0.261-1.078,0.62-1.498,1.074c-0.42,0.455-0.746,0.985-0.98,1.595c-0.234,0.609-0.35,1.261-0.35,1.956v0.032
				c0,0.695,0.117,1.349,0.357,1.963c0.239,0.615,0.568,1.149,0.988,1.603c0.419,0.455,0.922,0.815,1.506,1.082
				C136.957,29.125,137.595,29.258,138.285,29.258z"/>
			<path fill="#333333" d="M145.443,18.599h0.781l7.713,9.762v-9.762h0.78V29.82h-0.623l-7.872-9.971v9.971h-0.779V18.599z"/>
			<path fill="#333333" d="M64.083,32.253h2.321l4.902,11.59h-2.632l-1.046-2.581h-4.836l-1.046,2.581h-2.566L64.083,32.253z
				 M66.73,39.043l-1.52-3.731l-1.52,3.731H66.73z"/>
			<path fill="#333333" d="M72.009,32.336h2.32l5.361,7.085v-7.085h2.484v11.507h-2.142l-5.541-7.315v7.315h-2.484L72.009,32.336
				L72.009,32.336z"/>
			<path fill="#333333" d="M87.404,39.305l-4.396-6.969h2.942l2.729,4.619l2.777-4.619h2.861l-4.396,6.92v4.587h-2.518V39.305
				L87.404,39.305z"/>
			<path fill="#333333" d="M94.268,32.336h2.697l2.37,7.792l2.565-7.825h2.158l2.565,7.825l2.37-7.792h2.632l-3.905,11.588h-2.191
				l-2.582-7.528l-2.582,7.528h-2.189L94.268,32.336z"/>
			<path fill="#333333" d="M113.079,32.336h2.517v4.553h4.641v-4.553h2.518v11.507h-2.518v-4.619h-4.641v4.619h-2.517V32.336z"/>
			<path fill="#333333" d="M124.764,32.336h8.613v2.251h-6.129v2.335h5.393v2.252h-5.393v2.416h6.21v2.253h-8.694V32.336z"/>
			<path fill="#333333" d="M135.305,32.336h5.23c1.447,0,2.559,0.389,3.334,1.167c0.654,0.658,0.98,1.534,0.98,2.63v0.033
				c0,0.932-0.227,1.69-0.679,2.276c-0.452,0.587-1.044,1.017-1.774,1.291l2.795,4.109h-2.94l-2.452-3.683h-0.031h-1.947v3.683
				h-2.516V32.336z M140.371,37.94c0.621,0,1.098-0.148,1.431-0.445c0.332-0.298,0.498-0.694,0.498-1.189v-0.033
				c0-0.55-0.174-0.964-0.522-1.239c-0.348-0.275-0.834-0.413-1.455-0.413h-2.5v3.32H140.371z"/>
			<path fill="#333333" d="M146.385,32.336h8.613v2.251h-6.129v2.335h5.393v2.252h-5.393v2.416h6.21v2.253h-8.694V32.336z"/>
		</g>
		
			<linearGradient id="SVGID_1_" gradientUnits="userSpaceOnUse" x1="-391.478" y1="637.1563" x2="-340.0488" y2="637.1563" gradientTransform="matrix(1 0 0 -1 401 670)">
			<stop  offset="0" style="stop-color:#FDDB00"/>
			<stop  offset="0.0457" style="stop-color:#FBCC04"/>
			<stop  offset="0.1762" style="stop-color:#F7A80D"/>
			<stop  offset="0.3132" style="stop-color:#F48915"/>
			<stop  offset="0.4567" style="stop-color:#F1721B"/>
			<stop  offset="0.6093" style="stop-color:#EF6120"/>
			<stop  offset="0.7774" style="stop-color:#EE5722"/>
			<stop  offset="0.991" style="stop-color:#EE5423"/>
			<stop  offset="1" style="stop-color:#EE5423"/>
		</linearGradient>
		<path fill="url(#SVGID_1_)" d="M59.765,50.7c-0.958-1.22-2.456-2.297-3.655-3.099c-2.585-1.729-4.944-2.963-7.515-3.919
			L36.469,10.02c-0.068-0.215-0.356-1.048-0.969-1.894c-0.985-1.358-2.305-2.076-3.817-2.076s-2.833,0.718-3.818,2.076
			c-0.612,0.844-0.899,1.677-0.968,1.894L9.6,57.898c-0.243,0.671,0.102,1.414,0.769,1.658c0.146,0.054,0.294,0.079,0.44,0.079
			c0.406,0,0.792-0.196,1.034-0.528c0.041-0.049,0.078-0.102,0.112-0.159c2.586-4.39,6.271-8.066,10.655-10.634
			c4.515-2.645,9.68-4.043,14.937-4.043c2.39,0,4.745,0.287,7.023,0.843l-0.001,0.001c0.691,0.188,1.37,0.391,2.021,0.605
			l2.211,6.156l0.005,0.014c0.009,0.023,0.895,2.406,1.535,4.032c0.751,1.907,2.127,3.175,3.875,3.567
			c0.365,0.082,0.737,0.123,1.112,0.123c1.406,0,2.834-0.563,3.915-1.584c1.1-1.037,1.69-2.359,1.708-3.824
			C60.966,52.956,60.533,51.679,59.765,50.7z M21.315,46.076c-2.378,1.394-4.568,3.088-6.513,5.028l14.549-40.303
			c0.003-0.012,0.22-0.627,0.633-1.202c0.443-0.617,0.933-0.96,1.699-0.96c0.764,0,1.264,0.348,1.703,0.961
			c0.407,0.568,0.612,1.152,0.629,1.205l11.479,31.872c-2.573-0.654-5.239-0.995-7.948-0.995
			C31.836,41.683,26.223,43.202,21.315,46.076z M57.481,56.141c-0.755,0.713-1.791,1.027-2.705,0.822
			c-0.902-0.203-1.609-0.893-2.042-1.994c-0.614-1.56-1.462-3.838-1.514-3.979l-1.442-4.016c1.621,0.744,3.21,1.649,4.906,2.784
			c1.04,0.695,2.327,1.612,3.06,2.546C58.395,53.134,58.861,54.839,57.481,56.141z"/>
		
			<linearGradient id="SVGID_2_" gradientUnits="userSpaceOnUse" x1="-389.0303" y1="619.6973" x2="-354.4102" y2="619.6973" gradientTransform="matrix(1 0 0 -1 401 670)">
			<stop  offset="0.2768" style="stop-color:#FFFFFF;stop-opacity:0"/>
			<stop  offset="0.3213" style="stop-color:#F7F7F7;stop-opacity:0.0104"/>
			<stop  offset="0.3897" style="stop-color:#E2E2E2;stop-opacity:0.0263"/>
			<stop  offset="0.4734" style="stop-color:#C0BFBF;stop-opacity:0.0458"/>
			<stop  offset="0.5692" style="stop-color:#908E8F;stop-opacity:0.0681"/>
			<stop  offset="0.6753" style="stop-color:#534F51;stop-opacity:0.0929"/>
			<stop  offset="0.7884" style="stop-color:#090406;stop-opacity:0.1192"/>
			<stop  offset="0.7917" style="stop-color:#070204;stop-opacity:0.12"/>
			<stop  offset="0.905" style="stop-color:#070204;stop-opacity:0.23"/>
		</linearGradient>
		<path fill="url(#SVGID_2_)" d="M37.547,41.683c-5.711,0-11.324,1.52-16.232,4.394c-2.378,1.394-4.568,3.088-6.513,5.028
			l-0.384,1.055l-2.448,6.764c2.586-4.379,6.265-8.047,10.641-10.609c4.515-2.645,9.68-4.042,14.937-4.042
			c2.39,0,4.745,0.286,7.023,0.842l-0.001,0.002c0.691,0.187,1.37,0.391,2.021,0.605l-1.096-3.044
			C42.921,42.023,40.255,41.683,37.547,41.683z"/>
	</g>
	
		<linearGradient id="SVGID_3_" gradientUnits="userSpaceOnUse" x1="-352.4043" y1="621.0703" x2="-340.0493" y2="621.0703" gradientTransform="matrix(1 0 0 -1 401 670)">
		<stop  offset="0.1078" style="stop-color:#070204;stop-opacity:0.23"/>
		<stop  offset="0.2389" style="stop-color:#070204;stop-opacity:0.2"/>
		<stop  offset="0.3002" style="stop-color:#161113;stop-opacity:0.1808"/>
		<stop  offset="0.4191" style="stop-color:#3E3A3B;stop-opacity:0.1435"/>
		<stop  offset="0.5837" style="stop-color:#7E7B7C;stop-opacity:0.092"/>
		<stop  offset="0.7855" style="stop-color:#D5D4D5;stop-opacity:0.0287"/>
		<stop  offset="0.8771" style="stop-color:#FFFFFF;stop-opacity:0"/>
	</linearGradient>
	<path fill="url(#SVGID_3_)" d="M59.765,50.7c-0.958-1.22-2.456-2.297-3.655-3.099c-2.585-1.729-4.944-2.963-7.515-3.919
		l1.182,3.292h0c1.622,0.744,3.21,1.649,4.907,2.784c1.04,0.695,2.327,1.612,3.059,2.546c0.346,0.439,0.639,1.127,0.632,1.871h2.575
		C60.958,52.937,60.527,51.671,59.765,50.7z"/>
	<g>
		<path fill="#F15E27" d="M94.261,52.57l-0.651,1.974h-0.838l2.132-6.273h0.978l2.141,6.273h-0.865l-0.671-1.974H94.261z
			 M96.318,51.938l-0.614-1.806c-0.14-0.409-0.233-0.781-0.326-1.145h-0.019c-0.093,0.372-0.195,0.754-0.316,1.136l-0.614,1.814
			H96.318z"/>
		<path fill="#F15E27" d="M102.571,53.315c0,0.465,0.009,0.875,0.037,1.229h-0.726l-0.047-0.735h-0.019
			c-0.214,0.363-0.688,0.838-1.489,0.838c-0.707,0-1.555-0.391-1.555-1.974v-2.634h0.819v2.494c0,0.856,0.261,1.434,1.005,1.434
			c0.55,0,0.931-0.382,1.08-0.744c0.047-0.121,0.074-0.271,0.074-0.419v-2.765h0.819V53.315z"/>
		<path fill="#F15E27" d="M104.915,48.745v1.294h1.173v0.623h-1.173v2.43c0,0.559,0.158,0.875,0.614,0.875
			c0.214,0,0.372-0.028,0.475-0.056l0.037,0.614c-0.158,0.065-0.409,0.111-0.726,0.111c-0.382,0-0.688-0.121-0.885-0.344
			c-0.232-0.242-0.316-0.643-0.316-1.173v-2.458h-0.697v-0.623h0.697v-1.08L104.915,48.745z"/>
		<path fill="#F15E27" d="M111.029,52.254c0,1.666-1.153,2.393-2.243,2.393c-1.219,0-2.159-0.894-2.159-2.317
			c0-1.509,0.986-2.393,2.234-2.393C110.155,49.937,111.029,50.877,111.029,52.254z M107.455,52.301
			c0,0.986,0.568,1.731,1.369,1.731c0.781,0,1.368-0.735,1.368-1.75c0-0.764-0.382-1.731-1.35-1.731
			C107.874,50.551,107.455,51.444,107.455,52.301z"/>
		<path fill="#F15E27" d="M112.062,51.258c0-0.465-0.01-0.847-0.037-1.219h0.717l0.037,0.726h0.027
			c0.252-0.428,0.671-0.828,1.415-0.828c0.614,0,1.08,0.372,1.275,0.903h0.019c0.14-0.252,0.316-0.447,0.503-0.587
			c0.27-0.205,0.567-0.316,0.995-0.316c0.596,0,1.48,0.391,1.48,1.955v2.652h-0.801v-2.551c0-0.865-0.316-1.387-0.978-1.387
			c-0.465,0-0.828,0.345-0.968,0.745c-0.037,0.111-0.065,0.261-0.065,0.409v2.783h-0.8v-2.699c0-0.717-0.316-1.238-0.94-1.238
			c-0.512,0-0.884,0.41-1.015,0.819c-0.046,0.121-0.065,0.261-0.065,0.4v2.718h-0.8V51.258z"/>
		<path fill="#F15E27" d="M122.316,54.544l-0.065-0.567h-0.027c-0.251,0.354-0.735,0.67-1.378,0.67
			c-0.912,0-1.377-0.643-1.377-1.294c0-1.089,0.968-1.685,2.708-1.676v-0.093c0-0.372-0.103-1.042-1.023-1.042
			c-0.419,0-0.856,0.13-1.173,0.335l-0.187-0.54c0.372-0.242,0.912-0.4,1.48-0.4c1.377,0,1.712,0.94,1.712,1.843v1.685
			c0,0.392,0.019,0.772,0.075,1.08H122.316z M122.195,52.245c-0.894-0.019-1.908,0.14-1.908,1.015c0,0.53,0.354,0.781,0.772,0.781
			c0.587,0,0.959-0.372,1.09-0.754c0.027-0.084,0.046-0.177,0.046-0.261V52.245z"/>
		<path fill="#F15E27" d="M125.256,48.745v1.294h1.173v0.623h-1.173v2.43c0,0.559,0.158,0.875,0.614,0.875
			c0.214,0,0.372-0.028,0.475-0.056l0.037,0.614c-0.158,0.065-0.409,0.111-0.726,0.111c-0.382,0-0.688-0.121-0.885-0.344
			c-0.232-0.242-0.316-0.643-0.316-1.173v-2.458h-0.697v-0.623h0.697v-1.08L125.256,48.745z"/>
		<path fill="#F15E27" d="M128.262,48.773c0.009,0.279-0.195,0.502-0.521,0.502c-0.288,0-0.493-0.223-0.493-0.502
			c0-0.289,0.214-0.513,0.512-0.513C128.066,48.261,128.262,48.484,128.262,48.773z M127.35,54.544v-4.505h0.819v4.505H127.35z"/>
		<path fill="#F15E27" d="M133.604,52.254c0,1.666-1.153,2.393-2.243,2.393c-1.219,0-2.159-0.894-2.159-2.317
			c0-1.509,0.986-2.393,2.234-2.393C132.729,49.937,133.604,50.877,133.604,52.254z M130.029,52.301
			c0,0.986,0.568,1.731,1.369,1.731c0.781,0,1.368-0.735,1.368-1.75c0-0.764-0.382-1.731-1.35-1.731
			C130.448,50.551,130.029,51.444,130.029,52.301z"/>
		<path fill="#F15E27" d="M134.636,51.258c0-0.465-0.01-0.847-0.037-1.219h0.726l0.047,0.744h0.019
			c0.224-0.428,0.744-0.847,1.489-0.847c0.623,0,1.592,0.372,1.592,1.917v2.69h-0.819v-2.597c0-0.727-0.271-1.331-1.043-1.331
			c-0.539,0-0.958,0.382-1.098,0.838c-0.037,0.102-0.056,0.241-0.056,0.381v2.709h-0.819V51.258z"/>
		<path fill="#F15E27" d="M141.707,53.604c0.232,0.149,0.772,0.382,1.341,0.382c1.052,0,1.377-0.67,1.368-1.173
			c-0.01-0.847-0.772-1.21-1.564-1.21h-0.456v-0.614h0.456c0.596,0,1.35-0.307,1.35-1.023c0-0.484-0.307-0.912-1.061-0.912
			c-0.484,0-0.949,0.214-1.21,0.399l-0.214-0.596c0.316-0.232,0.931-0.465,1.582-0.465c1.191,0,1.731,0.707,1.731,1.442
			c0,0.624-0.373,1.154-1.117,1.424v0.02c0.744,0.148,1.35,0.707,1.35,1.554c0,0.968-0.754,1.815-2.206,1.815
			c-0.68,0-1.275-0.214-1.573-0.41L141.707,53.604z"/>
		<path fill="#F15E27" d="M149.738,49.071c-0.168-0.01-0.382,0-0.614,0.037c-1.284,0.214-1.964,1.154-2.104,2.149h0.027
			c0.289-0.381,0.792-0.697,1.462-0.697c1.07,0,1.824,0.772,1.824,1.954c0,1.107-0.754,2.132-2.011,2.132
			c-1.294,0-2.141-1.006-2.141-2.578c0-1.191,0.429-2.132,1.024-2.728c0.502-0.493,1.172-0.801,1.936-0.894
			c0.242-0.037,0.447-0.047,0.596-0.047V49.071z M149.506,52.562c0-0.866-0.493-1.387-1.247-1.387c-0.494,0-0.95,0.307-1.173,0.744
			c-0.057,0.093-0.094,0.214-0.094,0.363c0.019,0.996,0.475,1.731,1.331,1.731C149.031,54.014,149.506,53.427,149.506,52.562z"/>
		<path fill="#F15E27" d="M155.079,51.454c0,2.057-0.763,3.192-2.104,3.192c-1.182,0-1.982-1.107-2.001-3.109
			c0-2.028,0.875-3.146,2.104-3.146C154.354,48.392,155.079,49.527,155.079,51.454z M151.794,51.547
			c0,1.573,0.483,2.467,1.229,2.467c0.838,0,1.238-0.978,1.238-2.522c0-1.489-0.382-2.467-1.229-2.467
			C152.315,49.024,151.794,49.899,151.794,51.547z"/>
	</g>
</g>
</svg>
