<?xml version="1.0" encoding="utf-8"?>
<!-- Generator: Adobe Illustrator 16.0.0, SVG Export Plug-In . SVG Version: 6.00 Build 0)  -->
<!DOCTYPE svg PUBLIC "-//W3C//DTD SVG 1.1//EN" "http://www.w3.org/Graphics/SVG/1.1/DTD/svg11.dtd">
<svg version="1.1" id="Layer_1" xmlns="http://www.w3.org/2000/svg" xmlns:xlink="http://www.w3.org/1999/xlink" x="0px" y="0px"
	 width="14px" height="14px" viewBox="0 0 14 14" enable-background="new 0 0 14 14" xml:space="preserve">
<path fill="#E6C522" d="M14,7.111c0-3.778-3.111-6.889-6.889-6.889c-3.805,0-6.889,3.111-6.889,6.889
	C0.223,10.917,3.306,14,7.111,14C10.889,14,14,10.917,14,7.111z"/>
<path fill="#4D2D00" d="M7.111,8.5c0.695,0,1.277,0.584,1.277,1.277c0,0.723-0.582,1.278-1.277,1.278
	c-0.722,0-1.277-0.556-1.277-1.278C5.834,9.084,6.389,8.5,7.111,8.5z"/>
<path fill="#4D2D00" d="M5.889,3.917C5.861,3.723,6.028,3.556,6.223,3.556h1.75c0.194,0,0.361,0.167,0.334,0.361L8.111,7.695
	C8.084,7.889,7.945,8,7.778,8H6.417C6.25,8,6.111,7.889,6.084,7.695L5.889,3.917z"/>
</svg>
