<svg width="24" height="24" viewBox="0 0 24 24" fill="none" xmlns="http://www.w3.org/2000/svg">
<path d="M8.5 8C8.22386 8 8 8.22386 8 8.5V11.5C8 11.7761 8.22386 12 8.5 12H11.5C11.7761 12 12 11.7761 12 11.5V8.5C12 8.22386 11.7761 8 11.5 8H8.5Z" fill="white"/>
<path d="M9 13C8.44772 13 8 13.4477 8 14C8 14.5523 8.44772 15 9 15H15C15.5523 15 16 14.5523 16 14C16 13.4477 15.5523 13 15 13H9Z" fill="white"/>
<path d="M8 17C8 16.4477 8.44772 16 9 16H15C15.5523 16 16 16.4477 16 17C16 17.5523 15.5523 18 15 18H9C8.44772 18 8 17.5523 8 17Z" fill="white"/>
<path fill-rule="evenodd" clip-rule="evenodd" d="M20 20C20 21.1046 19.1046 22 18 22H6C4.89543 22 4 21.1046 4 20V3.99999C4 2.89542 4.89543 1.99998 6 1.99998H14.9296C15.5983 1.99998 16.2228 2.33419 16.5937 2.89058L19.6641 7.49614C19.8831 7.82467 20 8.21069 20 8.60554V20ZM6 20H18V9.49998H15C13.8954 9.49998 13 8.60455 13 7.49998V3.99998H6V20ZM15 4.10554L17.263 7.49998H15V4.10554Z" fill="white"/>
</svg>
