<svg width="24" height="24" viewBox="0 0 24 24" fill="none" xmlns="http://www.w3.org/2000/svg">
<path d="M12.0518 4C12.604 4 13.0518 4.44772 13.0518 5L13.0518 10.9482L15.7844 10.9482C15.9761 10.9482 16.0721 11.2232 15.9365 11.384L12.1522 15.8735C12.0681 15.9732 11.9319 15.9732 11.8478 15.8735L8.06346 11.384C7.9279 11.2232 8.02391 10.9482 8.21563 10.9482H11.0518L11.0518 5C11.0518 4.44772 11.4995 4 12.0518 4Z" fill="white"/>
<path d="M20 19C20 19.5523 19.5523 20 19 20L5 20C4.51675 20 4.11356 19.6572 4.02032 19.2015C4.007 19.1364 4 19.069 4 19V14C4 13.4477 4.44771 13 5 13C5.55228 13 6 13.4477 6 14L6 18L18 18V14C18 13.4477 18.4477 13 19 13C19.5523 13 20 13.4477 20 14V19Z" fill="white"/>
</svg>
